{
  "images" : [
    {
      "size" : "24x24",
      "idiom" : "watch",
      "filename" : "24pt@2x.png",
      "scale" : "2x",
      "role" : "notificationCenter",
      "subtype" : "38mm"
    },
    {
      "size" : "27.5x27.5",
      "idiom" : "watch",
      "filename" : "27.5pt@2x.png",
      "scale" : "2x",
      "role" : "notificationCenter",
      "subtype" : "42mm"
    },
    {
      "size" : "29x29",
      "idiom" : "watch",
      "filename" : "29pt@2x.png",
      "role" : "companionSettings",
      "scale" : "2x"
    },
    {
      "size" : "29x29",
      "idiom" : "watch",
      "filename" : "29pt@3x.png",
      "role" : "companionSettings",
      "scale" : "3x"
    },
    {
      "size" : "40x40",
      "idiom" : "watch",
      "filename" : "40pt@2x.png",
      "scale" : "2x",
      "role" : "appLauncher",
      "subtype" : "38mm"
    },
    {
      "size" : "86x86",
      "idiom" : "watch",
      "filename" : "86pt@2x.png",
      "scale" : "2x",
      "role" : "quickLook",
      "subtype" : "38mm"
    },
    {
      "size" : "98x98",
      "idiom" : "watch",
      "filename" : "98pt@2x.png",
      "scale" : "2x",
      "role" : "quickLook",
      "subtype" : "42mm"
    }
  ],
  "info" : {
    "version" : 1,
    "author" : "xcode"
  }
}